# Alias OBJ Model File
# Exported from SketchUp, (c) 2000-2012 Trimble Navigation Limited
# File units = meters

mtllib Bote.mtl

g Mesh1 papelero1 Model

usemtl GrisOscuro
v -1.96288 3.30863 -1.71928
vt -3059.5 -1948.06
vn 0.365747 0.329614 -0.870393
v -1.96217 3.3228 -1.71361
vt -3062.06 -1927.93
v -0.124015 3.3228 -0.9412
vt -4842.44 -1927.93
v -0.119462 3.30863 -0.944657
vt -4844.99 -1948.06
v -0.102291 3.25515 -0.957694
vt -4854.62 -2023.98
v -0.0660303 3.14221 -0.985225
vt -4874.94 -2184.3
v -1.9713 3.14221 -1.78584
vt -3029.55 -2184.3
v -1.96559 3.25515 -1.74067
vt -3049.88 -2023.98
f 1/1/1 2/2/1 3/3/1 4/4/1 5/5/1 6/6/1 7/7/1 8/8/1 

v -3.61728 3.14221 -0.536131
vt -3863.02 311.547
vn -0.570909 0.329614 -0.751943
v -3.57531 3.25515 -0.518493
vt -3883.34 471.866
v -3.55543 3.30863 -0.510141
vt -3892.97 547.785
v -3.55017 3.3228 -0.507927
vt -3895.52 567.914
vt -5675.9 567.914
vt -5678.45 547.785
vt -5688.08 471.866
vt -5708.41 311.547
f 9/9/2 10/10/2 11/11/2 12/12/2 2/13/2 1/14/2 8/15/2 7/16/2 

v -3.358 3.14221 1.51419
vt 89.2314 1916.57
vn -0.936656 0.329614 0.11845
v -3.32174 3.25515 1.48666
vt 68.9047 2076.89
v -3.30457 3.30863 1.47362
vt 59.279 2152.81
v -3.30001 3.3228 1.47016
vt 56.7269 2172.93
vt -1723.65 2172.93
vt -1726.21 2152.81
vt -1735.83 2076.89
vt -1756.16 1916.57
f 13/17/3 14/18/3 15/19/3 16/20/3 12/21/3 11/22/3 10/23/3 9/24/3 

v -1.50019 3.3228 2.22646
vt 4805.31 1282.11
vn -0.365747 0.329614 0.870393
vt 3062.06 1282.11
vt 3059.5 1261.98
vt 3049.88 1186.06
vt 3029.55 1025.74
v -1.52462 3.14221 2.28459
vt 4805.31 1025.74
v -1.45273 3.14221 2.3148
vt 4874.94 1025.74
v -1.45844 3.25515 2.26963
vt 4854.62 1186.06
v -1.46115 3.30863 2.24824
vt 4844.99 1261.98
v -1.46186 3.3228 2.24257
vt 4842.44 1282.11
f 17/25/4 16/26/4 15/27/4 14/28/4 13/29/4 18/30/4 19/31/4 20/32/4 21/33/4 22/34/4 

v -3.18405 3.3228 1.38211
vt 3586 693.188
vn 0 1 -0
vt 3482.45 575.18
vt 5089.58 -438.449
f 23/35/5 16/36/5 17/37/5

v -3.41593 3.3228 -0.451519
vt 3378.94 3150.71
f 24/38/5 16/36/5 23/35/5

vt 3259.08 3226.31
f 16/36/5 24/38/5 12/39/5

vt 4677.06 4842.22
f 24/38/5 2/40/5 12/39/5

v -1.9439 3.3228 -1.56915
vt 4693.38 4648.61
f 2/40/5 24/38/5 25/41/5

vt 3960.53 256.158
vn 0.570909 0.329614 0.751943
v -3.39078 3.25515 -0.440953
vt 3972.71 160.111
v -3.35385 3.15577 -0.425432
vt 3990.59 19.0341
v -3.34881 3.14221 -0.423315
vt 3993.03 -0.208277
v -1.93476 3.14221 -1.49692
vt 5578.39 -0.208277
v -1.93545 3.15577 -1.50234
vt 5580.83 19.0341
v -1.94048 3.25515 -1.54209
vt 5598.71 160.111
vt 5610.89 256.158
f 24/42/6 26/43/6 27/44/6 28/45/6 29/46/6 30/47/6 31/48/6 25/49/6 

vt 8.28221 -1348.86
vn 0.936656 0.329614 -0.11845
v -3.16232 3.25515 1.36562
vt 20.46 -1444.91
v -3.13041 3.15577 1.34139
vt 38.347 -1585.99
v -3.12606 3.14221 1.33809
vt 40.7868 -1605.23
vt 1626.14 -1605.23
vt 1628.58 -1585.99
vt 1646.47 -1444.91
vt 1658.64 -1348.86
f 23/50/7 32/51/7 33/52/7 34/53/7 28/54/7 27/55/7 26/56/7 24/57/7 

vt -3127.07 -458.035
v -1.48013 3.3228 2.09811
vt -4777.43 -458.035
v -1.48355 3.25515 2.07105
vt -4765.25 -554.083
v -1.48858 3.15577 2.03131
vt -4747.36 -695.159
v -1.48927 3.14221 2.02588
vt -4744.92 -714.402
vt -3159.57 -714.402
vt -3157.13 -695.159
vt -3139.24 -554.083
f 23/58/1 35/59/1 36/60/1 37/61/1 38/62/1 34/63/1 33/64/1 32/65/1 

vt 5107.49 -266.429
f 23/35/5 17/37/5 35/66/5

vt 5123.8 -460.036
f 35/66/5 17/37/5 22/67/5

usemtl GrisClaro
v -1.46115 3.3228 2.24824
vt 5124.44 -467.637
f 17/37/5 39/68/5 22/67/5

v -1.50211 3.3228 2.23103
vt 5087.86 -444.566
f 17/37/5 40/69/5 39/68/5

f 16/36/5 40/69/5 17/37/5

v -3.30457 3.3228 1.47362
vt 3478.38 570.548
f 16/36/5 41/70/5 40/69/5

f 12/39/5 41/70/5 16/36/5

v -3.55543 3.3228 -0.510141
vt 3254.37 3229.27
f 41/70/5 12/39/5 42/71/5

v -1.96288 3.3228 -1.71928
vt 4676.42 4849.82
f 12/39/5 43/72/5 42/71/5

f 43/72/5 12/39/5 2/40/5

v -0.119462 3.3228 -0.944657
vt 6322.48 3811.63
f 43/72/5 2/40/5 44/73/5

vt 6318.42 3807
f 44/73/5 2/40/5 3/74/5

usemtl GrisOscuro
f 2/40/5 25/41/5 3/74/5

v -0.239984 3.3228 -0.853152
vt 6214.87 3688.99
f 3/74/5 25/41/5 45/75/5

vt 3157.13 2514.88
vt 3159.57 2495.64
v -0.297968 3.14221 -0.809127
vt 4744.92 2495.64
v -0.293616 3.15577 -0.812432
vt 4747.36 2514.88
v -0.261707 3.25515 -0.836658
vt 4765.25 2655.96
vt 4777.43 2752.01
vt 3127.07 2752.01
vt 3139.24 2655.96
f 30/76/4 29/77/4 46/78/4 47/79/4 48/80/4 45/81/4 25/82/4 31/83/4 

vt 3159.57 -2072.89
vn -0.365747 -0.329614 0.870393
v -1.93545 3.12866 -1.50234
vt 3157.13 -2092.13
v -1.93848 3.06877 -1.5263
vt 3146.35 -2177.15
v -1.93925 3.05348 -1.53241
vt 3143.6 -2198.85
v -1.94037 3.03135 -1.54126
vt 3139.62 -2230.27
v -1.9439 2.96162 -1.56915
vt 3127.07 -2329.26
v -0.239984 2.96162 -0.853152
vt 4777.43 -2329.26
v -0.262373 3.03135 -0.836153
vt 4764.88 -2230.27
v -0.269479 3.05348 -0.830757
vt 4760.89 -2198.85
v -0.274387 3.06877 -0.827031
vt 4758.14 -2177.15
v -0.293616 3.12866 -0.812432
vt 4747.36 -2092.13
vt 4744.92 -2072.89
f 29/84/8 49/85/8 50/86/8 51/87/8 52/88/8 53/89/8 54/90/8 55/91/8 56/92/8 57/93/8 58/94/8 46/95/8 

v -3.39001 3.03135 -0.440629
vt 3973.08 265.582
vn 0.570909 -0.329614 0.751943
v -3.41593 2.96162 -0.451519
vt 3960.53 166.593
vt 5610.89 166.593
vt 5598.34 265.582
vt 5594.36 297.001
vt 5591.61 318.701
vt 5580.83 403.717
vt 5578.39 422.959
vt 3993.03 422.959
v -3.35385 3.12866 -0.425432
vt 3990.59 403.717
v -3.37611 3.06877 -0.434785
vt 3979.82 318.701
v -3.38179 3.05348 -0.437173
vt 3977.06 297.001
f 59/96/9 60/97/9 53/98/9 52/99/9 51/100/9 50/101/9 49/102/9 29/103/9 28/104/9 61/105/9 62/106/9 63/107/9 

v -3.16166 3.03135 1.36511
vt 20.8329 1870.6
vn 0.936656 -0.329614 -0.11845
v -3.18405 2.96162 1.38211
vt 8.28221 1771.61
vt 1658.64 1771.61
vt 1646.09 1870.6
vt 1642.11 1902.02
vt 1639.36 1923.72
vt 1628.58 2008.74
vt 1626.14 2027.98
vt 40.7868 2027.98
v -3.13041 3.12866 1.34139
vt 38.347 2008.74
v -3.14964 3.06877 1.35599
vt 27.5679 1923.72
v -3.15455 3.05348 1.35972
vt 24.8166 1902.02
f 64/108/10 65/109/10 60/110/10 59/111/10 63/112/10 62/113/10 61/114/10 28/115/10 34/116/10 66/117/10 67/118/10 68/119/10 

vt -3159.57 1137.15
vn 0.365747 -0.329614 -0.870393
vt -4744.92 1137.15
v -1.48858 3.12866 2.03131
vt -4747.36 1117.91
v -1.48555 3.06877 2.05526
vt -4758.14 1032.89
v -1.48478 3.05348 2.06137
vt -4760.89 1011.19
v -1.48366 3.03135 2.07022
vt -4764.88 979.775
v -1.48013 2.96162 2.09811
vt -4777.43 880.786
vt -3127.07 880.786
vt -3139.62 979.775
vt -3143.6 1011.19
vt -3146.35 1032.89
vt -3157.13 1117.91
f 34/120/11 38/121/11 69/122/11 70/123/11 71/124/11 72/125/11 73/126/11 65/127/11 64/128/11 68/129/11 67/130/11 66/131/11 

v -0.0752197 3.14221 0.952277
vt -5578.39 -1358.7
vn -0.570909 -0.329614 -0.751943
v -0.0701819 3.12866 0.954394
vt -5580.83 -1377.94
v -0.0479241 3.06877 0.963747
vt -5591.61 -1462.95
v -0.0422431 3.05348 0.966134
vt -5594.36 -1484.65
v -0.0340172 3.03135 0.969591
vt -5598.34 -1516.07
v -0.00810119 2.96162 0.980481
vt -5610.89 -1615.06
v -1.07096 2.96162 1.78745
vt -4419.27 -1615.06
vt -3960.53 -1615.06
vt -3973.08 -1516.07
vt -3977.06 -1484.65
vt -3979.82 -1462.95
vt -3990.59 -1377.94
vt -3993.03 -1358.7
v -1.10908 3.14221 1.73723
vt -4419.27 -1358.7
f 74/132/12 75/133/12 76/134/12 77/135/12 78/136/12 79/137/12 80/138/12 73/139/12 72/140/12 71/141/12 70/142/12 69/143/12 38/144/12 81/145/12 

vt -1646.09 -3121.09
vn -0.936656 -0.329614 0.11845
vt -1658.64 -3220.08
vt -8.28221 -3220.08
vt -20.8329 -3121.09
vt -24.8166 -3089.67
vt -27.5679 -3067.97
vt -38.347 -2982.96
vt -40.7868 -2963.72
vt -1626.14 -2963.72
vt -1628.58 -2982.96
vt -1639.36 -3067.97
vt -1642.11 -3089.67
f 55/146/13 54/147/13 79/148/13 78/149/13 77/150/13 76/151/13 75/152/13 74/153/13 46/154/13 58/155/13 57/156/13 56/157/13 

usemtl GrisClaro
vt -6214.87 3688.99
vn 0 -1 -0
v -0.124015 2.96162 -0.9412
vt -6318.42 3807
vt -6421.92 1231.47
f 54/158/14 82/159/14 79/160/14

vt -4693.38 4648.61
f 53/161/14 82/159/14 54/158/14

v -1.96217 2.96162 -1.71361
vt -4677.06 4842.22
f 53/161/14 83/162/14 82/159/14

vt -3378.94 3150.71
f 60/163/14 83/162/14 53/161/14

v -3.55017 2.96162 -0.507927
vt -3259.08 3226.31
f 83/162/14 60/163/14 84/164/14

v -3.30001 2.96162 1.47016
vt -3482.45 575.18
f 60/163/14 85/165/14 84/164/14

vt -3586 693.188
f 85/165/14 60/163/14 65/166/14

v -1.50019 2.96162 2.22646
vt -5089.58 -438.449
f 85/165/14 65/166/14 86/167/14

vt -5107.49 -266.429
f 86/167/14 65/166/14 73/168/14

v -1.46186 2.96162 2.24257
vt -5123.8 -460.036
f 86/167/14 73/168/14 87/169/14

vt -5472.86 149.937
f 87/169/14 73/168/14 80/170/14

v -0.994705 2.96162 1.88788
vt -5540.95 15.3336
f 87/169/14 80/170/14 88/171/14

f 88/171/14 80/170/14 79/160/14

v 0.126136 2.96162 1.03689
vt -6541.79 1155.87
f 88/171/14 79/160/14 89/172/14

f 79/160/14 82/159/14 89/172/14

usemtl GrisOscuro
v -0.0945192 3.05348 -0.963595
vt 1740.19 3371.92
v -0.0895911 3.06883 -0.967336
vt 1742.95 3393.71
vt 1756.16 3497.88
v 0.193254 3.14221 1.06509
vt -89.2314 3497.88
v 0.165982 3.06883 1.05363
vt -76.0238 3393.71
v 0.160278 3.05348 1.05124
vt -73.2613 3371.92
v 0.152052 3.03135 1.04778
vt -69.2776 3340.5
v 0.131406 2.9758 1.0391
vt -59.279 3261.64
vt -56.7269 3241.51
vt 1723.65 3241.51
v -0.119462 2.9758 -0.944657
vt 1726.21 3261.64
v -0.101626 3.03135 -0.958199
vt 1736.2 3340.5
f 90/173/10 91/174/10 6/175/10 92/176/10 93/177/10 94/178/10 95/179/10 96/180/10 89/181/10 82/182/10 97/183/10 98/184/10 

v -1.96681 3.05348 -1.75035
vt -3045.52 2481.09
v -1.96759 3.06883 -1.75649
vt -3042.76 2502.88
vt -3029.55 2607.05
vt -4874.94 2607.05
vt -4861.73 2502.88
vt -4858.97 2481.09
vt -4854.99 2449.67
vt -4844.99 2370.81
vt -4842.44 2350.69
vt -3062.06 2350.69
v -1.96288 2.9758 -1.71928
vt -3059.5 2370.81
v -1.96569 3.03135 -1.7415
vt -3049.51 2449.67
f 99/185/11 100/186/11 7/187/11 6/188/11 91/189/11 90/190/11 98/191/11 97/192/11 82/193/11 83/194/11 101/195/11 102/196/11 

v -3.55543 2.9758 -0.510141
vt -3892.97 -125.034
v -3.57608 3.03135 -0.518817
vt -3882.97 -46.1736
v -3.58431 3.05348 -0.522274
vt -3878.99 -14.7538
v -3.59001 3.06883 -0.524671
vt -3876.22 7.03466
vt -3863.02 111.204
vt -5708.41 111.204
vt -5695.2 7.03466
vt -5692.43 -14.7538
vt -5688.45 -46.1736
vt -5678.45 -125.034
vt -5675.9 -145.162
vt -3895.52 -145.162
f 103/197/12 104/198/12 105/199/12 106/200/12 9/201/12 7/202/12 100/203/12 99/204/12 102/205/12 101/206/12 83/207/12 84/208/12 

v -3.30457 2.9758 1.47362
vt 59.279 -1730.05
v -3.3224 3.03135 1.48716
vt 69.2776 -1651.19
v -3.32951 3.05348 1.49256
vt 73.2613 -1619.77
v -3.33444 3.06883 1.4963
vt 76.0238 -1597.99
vt 89.2314 -1493.82
vt -1756.16 -1493.82
vt -1742.95 -1597.99
vt -1740.19 -1619.77
vt -1736.2 -1651.19
vt -1726.21 -1730.05
vt -1723.65 -1750.18
vt 56.7269 -1750.18
f 107/209/13 108/210/13 109/211/13 110/212/13 13/213/13 9/214/13 106/215/13 105/216/13 104/217/13 103/218/13 84/219/13 85/220/13 

v -1.45644 3.06883 2.28545
vt 4861.73 -707.159
vt 4874.94 -602.989
vt 4805.31 -602.989
vt 3029.55 -602.989
vt 3042.76 -707.159
vt 3045.52 -728.947
vt 3049.51 -760.367
vt 3059.5 -839.227
vt 3062.06 -859.356
vt 4805.31 -859.356
vt 4842.44 -859.356
v -1.46115 2.9758 2.24824
vt 4844.99 -839.227
v -1.45834 3.03135 2.27046
vt 4854.99 -760.367
v -1.45722 3.05348 2.27931
vt 4858.97 -728.947
f 111/221/8 19/222/8 18/223/8 13/224/8 110/225/8 109/226/8 108/227/8 107/228/8 85/229/8 86/230/8 87/231/8 112/232/8 113/233/8 114/234/8 

vt 5678.45 1656.62
vt 5688.45 1735.48
vt 5692.43 1766.9
vt 5695.2 1788.69
vt 5708.41 1892.86
v -0.956579 3.14221 1.9381
vt 4419.27 1892.86
vt 3863.02 1892.86
vt 3876.22 1788.69
vt 3878.99 1766.9
vt 3882.97 1735.48
vt 3892.97 1656.62
vt 3895.52 1636.49
vt 4419.27 1636.49
vt 5675.9 1636.49
f 96/235/9 95/236/9 94/237/9 93/238/9 92/239/9 115/240/9 19/241/9 111/242/9 114/243/9 113/244/9 112/245/9 87/246/9 88/247/9 89/248/9 

v 0.131406 3.30863 1.0391
vt 5678.45 -1233.87
v 0.126136 3.3228 1.03689
vt 5675.9 -1213.74
v -0.994705 3.3228 1.88788
vt 4419.27 -1213.74
vt 3895.52 -1213.74
vt 3892.97 -1233.87
vt 3883.34 -1309.79
vt 3863.02 -1470.11
vt 4419.27 -1470.11
vt 5708.41 -1470.11
v 0.151282 3.25515 1.04745
vt 5688.08 -1309.79
f 116/249/6 117/250/6 118/251/6 22/252/6 21/253/6 20/254/6 19/255/6 115/256/6 92/257/6 119/258/6 

vt 1726.21 -2838.89
vt 1723.65 -2818.76
vt -56.7269 -2818.76
vt -59.279 -2838.89
vt -68.9047 -2914.81
vt -89.2314 -3075.13
vt 1756.16 -3075.13
vt 1735.83 -2914.81
f 4/259/7 3/260/7 117/261/7 116/262/7 119/263/7 92/264/7 6/265/7 5/266/7 

v -0.00810119 3.3228 0.980481
vt 6421.92 1231.47
vt 6541.79 1155.87
f 3/74/5 120/267/5 117/268/5

f 3/74/5 45/75/5 120/267/5

vt -1628.58 3405.71
vt -1626.14 3386.47
vt -40.7868 3386.47
v -0.0701819 3.15577 0.954394
vt -38.347 3405.71
v -0.033247 3.25515 0.969914
vt -20.46 3546.79
vt -8.28221 3642.83
vt -1658.64 3642.83
vt -1646.47 3546.79
f 47/269/3 46/270/3 74/271/3 121/272/3 122/273/3 120/274/3 45/275/3 48/276/3 

vt -4419.27 1781.45
vt -3993.03 1781.45
vt -3990.59 1800.69
vt -3972.71 1941.77
vt -3960.53 2037.81
v -1.07096 3.3228 1.78745
vt -4419.27 2037.81
vt -5610.89 2037.81
vt -5598.71 1941.77
vt -5580.83 1800.69
vt -5578.39 1781.45
f 81/277/2 38/278/2 37/279/2 36/280/2 35/281/2 123/282/2 120/283/2 122/284/2 121/285/2 74/286/2 

usemtl GrisClaro
v -1.42692 3.14221 2.05208
vt -4805.31 -714.402
v -1.45134 3.3228 2.11021
vt -4805.31 -458.035
v -1.44219 3.25515 2.08843
vt -4805.31 -554.083
v -1.42875 3.15577 2.05645
vt -4805.31 -695.159
f 124/287/1 38/62/1 37/61/1 36/60/1 35/59/1 125/288/1 126/289/1 127/290/1 

v -1.45134 2.96162 2.11021
vt -4805.31 880.786
vt -4805.31 1137.15
v -1.42875 3.12866 2.05645
vt -4805.31 1117.91
v -1.43685 3.06877 2.07572
vt -4805.31 1032.89
v -1.43892 3.05348 2.08064
vt -4805.31 1011.19
v -1.44191 3.03135 2.08777
vt -4805.31 979.775
f 128/291/11 73/126/11 72/125/11 71/124/11 70/123/11 69/122/11 38/121/11 124/292/11 129/293/11 130/294/11 131/295/11 132/296/11 

usemtl GrisOscuro
vt 5472.86 149.937
f 35/66/5 22/67/5 123/297/5

vt 5540.95 15.3336
f 123/297/5 22/67/5 118/298/5

usemtl GrisClaro
f 22/67/5 39/68/5 118/298/5

v -0.991711 3.3228 1.89182
vt 5543.62 10.0494
f 118/298/5 39/68/5 133/299/5

usemtl GrisOscuro
v 0.131406 3.3228 1.0391
vt 5678.45 465.927
vn 0.604702 1.21011e-17 0.796452
vt 4419.27 465.927
vt 3892.97 465.927
vt 3892.97 446.923
vt 3892.97 0.851617
v -1.46115 -0.946778 2.24824
vt 3892.97 -5256.36
v -0.991711 -0.946778 1.89182
vt 4419.27 -5256.36
v 0.131406 -0.946778 1.0391
vt 5678.45 -5256.36
vt 5678.45 0.851617
vt 5678.45 446.923
f 134/300/15 133/301/15 39/302/15 21/303/15 112/304/15 135/305/15 136/306/15 137/307/15 96/308/15 116/309/15 

usemtl GrisClaro
vt 6546.49 1152.91
f 117/268/5 133/299/5 134/310/5

f 118/298/5 133/299/5 117/268/5

usemtl GrisOscuro
f 120/267/5 118/298/5 117/268/5

f 123/297/5 118/298/5 120/267/5

usemtl GrisClaro
f 44/73/5 117/268/5 134/310/5

f 44/73/5 3/74/5 117/268/5

usemtl GrisOscuro
vt -59.279 -5256.36
vn 0.992098 -2.47494e-18 -0.125462
v -0.119462 -0.946778 -0.944657
vt 1726.21 -5256.36
vt 1726.21 0.851617
vt 1726.21 446.923
vt 1726.21 465.927
vt -59.279 465.927
vt -59.279 446.923
vt -59.279 0.851617
f 137/311/16 138/312/16 97/313/16 4/314/16 44/315/16 134/316/16 116/317/16 96/318/16 

v -1.50211 -0.946778 2.23103
vt -5087.86 -444.566
v -3.30457 -0.946778 1.47362
vt -3478.38 570.548
v -3.55543 -0.946778 -0.510141
vt -3254.37 3229.27
v -1.96288 -0.946778 -1.71928
vt -4676.42 4849.82
vt -6322.48 3811.63
vt -6546.49 1152.91
vt -5543.62 10.0494
vt -5124.44 -467.637
f 139/319/14 140/320/14 141/321/14 142/322/14 138/323/14 137/324/14 136/325/14 135/326/14 

vt 3059.5 -5256.36
vn -0.387396 -1.53011e-17 0.921913
vt 4805.31 -5256.36
vt 4805.31 465.927
vt 3059.5 465.927
vt 3059.5 446.923
vt 3059.5 0.851617
f 140/327/17 139/328/17 40/329/17 41/330/17 15/331/17 107/332/17 

vn -0.387396 0 0.921913
vt 4844.99 -5256.36
vt 4844.99 0.851617
vt 4844.99 446.923
vt 4844.99 465.927
f 139/328/18 135/333/18 112/334/18 21/335/18 39/336/18 40/329/18 

vt -1726.21 -5256.36
vn -0.992098 -3.82645e-20 0.125462
vt 59.279 -5256.36
vt 59.279 0.851617
vt 59.279 446.923
vt 59.279 465.927
vt -1726.21 465.927
vt -1726.21 446.923
vt -1726.21 0.851617
f 141/337/19 140/338/19 107/339/19 15/340/19 41/341/19 42/342/19 11/343/19 103/344/19 

vt -5678.45 -5256.36
vn -0.604702 1.8986e-18 -0.796452
vt -3892.97 -5256.36
vt -3892.97 0.851617
vt -3892.97 446.923
vt -3892.97 465.927
vt -5678.45 465.927
vt -5678.45 446.923
vt -5678.45 0.851617
f 142/345/20 141/346/20 103/347/20 11/348/20 42/349/20 43/350/20 1/351/20 101/352/20 

vt -4844.99 -5256.36
vn 0.387396 -5.50242e-19 -0.921913
vt -3059.5 -5256.36
vt -3059.5 0.851617
vt -3059.5 446.923
vt -3059.5 465.927
vt -4844.99 465.927
vt -4844.99 446.923
vt -4844.99 0.851617
f 138/353/21 142/354/21 101/355/21 1/356/21 43/357/21 44/358/21 4/359/21 97/360/21 

