#
## Alias OBJ Material File
# Exported from SketchUp, (c) 2000-2012 Trimble Navigation Limited

newmtl M_0137_Black
Ka 0.000000 0.000000 0.000000
Kd 0.713725 0.439216 0.745098
Ks 0.330000 0.330000 0.330000
map_Kd chair/M_0137_Black.jpg

newmtl M_0131_Silver
Ka 0.000000 0.000000 0.000000
Kd 0.772549 0.643137 0.443137
Ks 0.330000 0.330000 0.330000
map_Kd chair/wood.jpg

newmtl M_0136_Charcoal
Ka 0.000000 0.000000 0.000000
Kd 0.713725 0.439216 0.745098
Ks 0.330000 0.330000 0.330000
map_Kd chair/M_0136_Charcoal.jpg

