#
## Alias OBJ Material File
# Exported from SketchUp, (c) 2000-2012 Trimble Navigation Limited

newmtl _auto_
Ka 0.000000 0.000000 0.000000
Kd 0.811765 0.698039 0.007843
Ks 0.330000 0.330000 0.330000
map_Kd Pika/_auto_.png

newmtl _auto_1
Ka 0.000000 0.000000 0.000000
Kd 0.980392 0.823529 0.078431
Ks 0.330000 0.330000 0.330000
map_Kd Pika/_auto_1.png

newmtl _auto_2
Ka 0.000000 0.000000 0.000000
Kd 0.952941 0.831373 0.011765
Ks 0.330000 0.330000 0.330000
map_Kd Pika/_auto_2.png

newmtl _auto_3
Ka 0.000000 0.000000 0.000000
Kd 0.866667 0.768627 0.031373
Ks 0.330000 0.330000 0.330000
map_Kd Pika/_auto_3.png

