#
## Alias OBJ Material File
# Exported from SketchUp, (c) 2000-2012 Trimble Navigation Limited

newmtl _11
Ka 0.000000 0.000000 0.000000
Kd 0.000000 0.000000 0.000000
Ks 0.330000 0.330000 0.330000
map_Kd Poke/_13.jpg

newmtl _12
Ka 0.000000 0.000000 0.000000
Kd 0.831373 0.066667 0.133333
Ks 0.330000 0.330000 0.330000
map_Kd Poke/_11.jpg

newmtl _15
Ka 0.000000 0.000000 0.000000
Kd 0.917647 0.917647 0.917647
Ks 0.330000 0.330000 0.330000
map_Kd Poke/_13.jpg

newmtl _13
Ka 0.000000 0.000000 0.000000
Kd 0.909804 0.909804 0.909804
Ks 0.330000 0.330000 0.330000
map_Kd Poke/_13.jpg

newmtl _Gold_
Ka 0.000000 0.000000 0.000000
Kd 0.917647 0.917647 0.917647
Ks 0.330000 0.330000 0.330000
map_Kd Poke/_12.jpg

